<?xml version="1.0" encoding="UTF-8" standalone="no"?>
<!-- Created with Inkscape (http://www.inkscape.org/) -->

<svg
   xmlns:dc="http://purl.org/dc/elements/1.1/"
   xmlns:cc="http://creativecommons.org/ns#"
   xmlns:rdf="http://www.w3.org/1999/02/22-rdf-syntax-ns#"
   xmlns:svg="http://www.w3.org/2000/svg"
   xmlns="http://www.w3.org/2000/svg"
   xmlns:sodipodi="http://sodipodi.sourceforge.net/DTD/sodipodi-0.dtd"
   xmlns:inkscape="http://www.inkscape.org/namespaces/inkscape"
   width="100"
   height="100"
   viewBox="0 0 93.750005 93.750004"
   id="svg2"
   version="1.1"
   inkscape:version="0.91 r13725"
   sodipodi:docname="logo.svg"
   inkscape:export-filename="/home/doctormo/Desktop/tsig-tev-logo.png"
   inkscape:export-xdpi="288"
   inkscape:export-ydpi="288">
  <defs
     id="defs4" />
  <sodipodi:namedview
     id="base"
     pagecolor="#ffffff"
     bordercolor="#666666"
     borderopacity="1.0"
     inkscape:pageopacity="0.0"
     inkscape:pageshadow="2"
     inkscape:zoom="2.8284271"
     inkscape:cx="12.474209"
     inkscape:cy="6.5426522"
     inkscape:document-units="px"
     inkscape:current-layer="layer1"
     showgrid="false"
     fit-margin-top="0"
     fit-margin-left="0"
     fit-margin-right="0"
     fit-margin-bottom="0"
     inkscape:window-width="1855"
     inkscape:window-height="1056"
     inkscape:window-x="65"
     inkscape:window-y="24"
     inkscape:window-maximized="1"
     units="px" />
  <metadata
     id="metadata7">
    <rdf:RDF>
      <cc:Work
         rdf:about="">
        <dc:format>image/svg+xml</dc:format>
        <dc:type
           rdf:resource="http://purl.org/dc/dcmitype/StillImage" />
        <dc:title />
      </cc:Work>
    </rdf:RDF>
  </metadata>
  <g
     inkscape:label="Layer 1"
     inkscape:groupmode="layer"
     id="layer1"
     transform="translate(-147.60411,-409.03766)">
    <circle
       style="color:#000000;clip-rule:nonzero;display:inline;overflow:visible;visibility:visible;opacity:1;isolation:auto;mix-blend-mode:normal;color-interpolation:sRGB;color-interpolation-filters:linearRGB;solid-color:#000000;solid-opacity:1;fill:#6b4172;fill-opacity:1;fill-rule:evenodd;stroke:none;stroke-width:4;stroke-linecap:butt;stroke-linejoin:miter;stroke-miterlimit:4;stroke-dasharray:none;stroke-dashoffset:0;stroke-opacity:1;marker:none;paint-order:normal;color-rendering:auto;image-rendering:auto;shape-rendering:auto;text-rendering:auto;enable-background:accumulate"
       id="path4136"
       cx="187.33405"
       cy="455.91266"
       r="36.97879" />
    <path
       style="color:#000000;clip-rule:nonzero;display:inline;overflow:visible;visibility:visible;opacity:1;isolation:auto;mix-blend-mode:normal;color-interpolation:sRGB;color-interpolation-filters:linearRGB;solid-color:#000000;solid-opacity:1;fill:#ad7fa8;fill-opacity:1;fill-rule:evenodd;stroke:none;stroke-width:4;stroke-linecap:butt;stroke-linejoin:miter;stroke-miterlimit:4;stroke-dasharray:none;stroke-dashoffset:0;stroke-opacity:1;marker:none;paint-order:normal;color-rendering:auto;image-rendering:auto;shape-rendering:auto;text-rendering:auto;enable-background:accumulate"
       d="m 81.822636,49.999994 c 0,21.78434 -17.659699,39.444036 -39.444041,39.444036 -21.784342,0 -39.4440404,-17.659697 -39.4440404,-39.444036 l 29.9300524,0 c 0,0 1.175812,32.164503 9.171519,32.164503 7.995707,0 9.171518,-32.164503 9.171518,-32.164503 z"
       id="path1668"
       transform="matrix(0.93750006,0,0,0.93750016,147.60411,409.03766)"
       inkscape:connector-curvature="0"
       sodipodi:nodetypes="cscczcc" />
    <text
       xml:space="preserve"
       style="font-size:21.6010685px;line-height:1000%;font-family:'Rothenburg Decorative';-inkscape-font-specification:'Rothenburg Decorative';text-align:center;letter-spacing:0px;word-spacing:0px;text-anchor:middle;fill:none;stroke:none;stroke-width:0.93750006px;stroke-linecap:butt;stroke-linejoin:miter;stroke-opacity:1"
       x="189.46173"
       y="460.22687"
       id="text4140"
       sodipodi:linespacing="1000%"
       transform="scale(0.98907243,1.0110483)"><tspan
         sodipodi:role="line"
         id="tspan4142"
         x="189.46173"
         y="460.22687"
         style="font-style:normal;font-variant:normal;font-weight:normal;font-stretch:normal;font-family:'Arial Black';-inkscape-font-specification:'Arial Black, ';text-align:center;text-anchor:middle;fill:#ffffff;fill-opacity:1;stroke:none;stroke-width:1.39333594px">T     V</tspan></text>
    <ellipse
       style="color:#000000;clip-rule:nonzero;display:inline;overflow:visible;visibility:visible;opacity:1;isolation:auto;mix-blend-mode:normal;color-interpolation:sRGB;color-interpolation-filters:linearRGB;solid-color:#000000;solid-opacity:1;fill:#ffffff;fill-opacity:0.21794872;fill-rule:nonzero;stroke:none;stroke-width:0.99999994px;stroke-linecap:butt;stroke-linejoin:miter;stroke-miterlimit:4;stroke-dasharray:none;stroke-dashoffset:0;stroke-opacity:1;color-rendering:auto;image-rendering:auto;shape-rendering:auto;text-rendering:auto;enable-background:accumulate"
       id="path827"
       cx="186.97911"
       cy="457.31891"
       rx="15.468751"
       ry="15.468753" />
    <path
       style="color:#000000;clip-rule:nonzero;display:inline;overflow:visible;visibility:visible;opacity:1;isolation:auto;mix-blend-mode:normal;color-interpolation:sRGB;color-interpolation-filters:linearRGB;solid-color:#000000;solid-opacity:1;fill:#ffffff;fill-opacity:1;fill-rule:evenodd;stroke:none;stroke-width:4;stroke-linecap:butt;stroke-linejoin:miter;stroke-miterlimit:4;stroke-dasharray:none;stroke-dashoffset:0;stroke-opacity:1;marker:none;paint-order:normal;color-rendering:auto;image-rendering:auto;shape-rendering:auto;text-rendering:auto;enable-background:accumulate"
       d="m 187.44226,439.57043 a 18.641478,18.641481 0 0 0 -18.64013,18.64014 18.641478,18.641481 0 0 0 18.64013,18.64197 18.641478,18.641481 0 0 0 18.64197,-18.64197 18.641478,18.641481 0 0 0 -18.64197,-18.64014 z m 0,3.97705 a 14.664003,14.664004 0 0 1 14.66492,14.66309 14.664003,14.664004 0 0 1 -14.66492,14.66492 14.664003,14.664004 0 0 1 -14.66308,-14.66492 14.664003,14.664004 0 0 1 14.66308,-14.66309 z"
       id="ellipse822"
       inkscape:connector-curvature="0" />
    <text
       xml:space="preserve"
       style="font-size:27.45499992px;line-height:1000%;font-family:'Rothenburg Decorative';-inkscape-font-specification:'Rothenburg Decorative';letter-spacing:0px;word-spacing:0px;fill:#ffffff;fill-opacity:1;stroke:#000000;stroke-width:0.93749994px;stroke-linecap:butt;stroke-linejoin:miter;stroke-opacity:1;"
       x="-89.884895"
       y="494.62418"
       id="text4144"
       sodipodi:linespacing="1000%"
       transform="matrix(0.84981379,-0.52152337,0.52458155,0.85479722,0,0)"><tspan
         sodipodi:role="line"
         id="tspan4146"
         x="-89.884895"
         y="494.62418"
         style="font-style:normal;font-variant:normal;font-weight:normal;font-stretch:normal;font-family:'Arial Black';-inkscape-font-specification:'Arial Black, ';fill:#ffffff;fill-opacity:1;stroke:none;stroke-width:0.9375px;">e</tspan></text>
    <path
       style="fill:#ffffff;fill-opacity:1;stroke:none;stroke-width:0.93750012px;stroke-linecap:butt;stroke-linejoin:miter;stroke-opacity:1"
       d="m 195.99673,472.95661 18.89301,25.19068 22.53904,0 -36.4602,-30.16253 z"
       id="path824"
       inkscape:connector-curvature="0"
       sodipodi:nodetypes="ccccc" />
  </g>
</svg>
